[
	{
		"id": 1,
		"Name": "Иванов",
		"SurName": "Иван",
		"MiddleName": "Иванович",
		"Email": "ivanov@mail.ru"
	},
	{
		"id": 2,
		"Name": "Петров",
		"SurName": "Петр",
		"MiddleName": "Петрович",
		"Email": "petrov@mail.ru"
	}
]